tb_nanocore16.vcd
$date
	Wed Jun 24 09:38:53 2026
$end
$version
	Icarus Verilog
$end
$timescale
	1s
$end
$scope module tb_nanocore16 $end
$var wire 1 ! tb_zero_flag $end
$var wire 1 " tb_carry_flag $end
$var wire 8 # tb_alu_result [7:0] $end
$var reg 16 $ tb_branch_target [15:0] $end
$var reg 1 % tb_clk $end
$var reg 1 & tb_pc_en $end
$var reg 1 ' tb_rstn $end
$scope module dut $end
$var wire 16 ( branch_target [15:0] $end
$var wire 1 % clk $end
$var wire 1 & pc_en $end
$var wire 1 ' rstn $end
$var wire 1 ! zero_flag $end
$var wire 1 ) wr_en $end
$var wire 8 * rs2_data [7:0] $end
$var wire 4 + rs2_addr [3:0] $end
$var wire 4 , rs1_addr [3:0] $end
$var wire 4 - rd_addr [3:0] $end
$var wire 16 . pc_out [15:0] $end
$var wire 8 / operand_sel [7:0] $end
$var wire 8 0 operand_a [7:0] $end
$var wire 16 1 instr [15:0] $end
$var wire 1 2 imm_sel $end
$var wire 8 3 imm [7:0] $end
$var wire 1 " carry_flag $end
$var wire 1 4 branch_en $end
$var wire 8 5 alu_result [7:0] $end
$var wire 4 6 alu_op [3:0] $end
$scope module dut1 $end
$var wire 16 7 branch_target [15:0] $end
$var wire 1 % clk $end
$var wire 1 & pc_en $end
$var wire 1 ' rstn $end
$var wire 1 4 branch_en $end
$var reg 16 8 pc_out [15:0] $end
$upscope $end
$scope module dut2 $end
$var wire 16 9 addr [15:0] $end
$var reg 16 : instr [15:0] $end
$upscope $end
$scope module dut3 $end
$var wire 16 ; instr [15:0] $end
$var wire 1 ! zero_flag $end
$var wire 4 < rs2_addr [3:0] $end
$var wire 4 = rs1_addr [3:0] $end
$var wire 4 > rd_addr [3:0] $end
$var wire 8 ? imm [7:0] $end
$var reg 4 @ alu_op [3:0] $end
$var reg 1 4 branch_en $end
$var reg 1 2 imm_sel $end
$var reg 1 ) reg_wr_en $end
$upscope $end
$scope module dut4 $end
$var wire 1 % clk $end
$var wire 4 A rd_addr [3:0] $end
$var wire 4 B rs1_addr [3:0] $end
$var wire 4 C rs2_addr [3:0] $end
$var wire 1 ' rstn $end
$var wire 1 ) wr_en $end
$var wire 8 D wr_data [7:0] $end
$var reg 8 E rs1_data [7:0] $end
$var reg 8 F rs2_data [7:0] $end
$var integer 32 G i [31:0] $end
$upscope $end
$scope module dut5 $end
$var wire 4 H alu_op [3:0] $end
$var wire 8 I operand_a [7:0] $end
$var wire 8 J operand_b [7:0] $end
$var reg 8 K alu_result [7:0] $end
$var reg 9 L c_f [8:0] $end
$var reg 1 " carry_flag $end
$var reg 1 ! zero_flag $end
$upscope $end
$upscope $end
$upscope $end
$enddefinitions $end
$comment Show the parameter values. $end
$dumpall
$end
#0
$dumpvars
bx L
b101 K
b101 J
b0 I
b1001 H
b10000 G
b0 F
b0 E
b101 D
b101 C
b0 B
b1 A
b1001 @
b101 ?
b1 >
b0 =
b101 <
b1001000100000101 ;
b1001000100000101 :
b0 9
b0 8
b0 7
b1001 6
b101 5
04
b101 3
12
b1001000100000101 1
b0 0
b101 /
b0 .
b1 -
b0 ,
b101 +
b0 *
1)
b0 (
0'
0&
0%
b0 $
b101 #
0"
0!
$end
#5
b10000 G
1%
#10
0%
#15
b10000 G
1%
#20
0%
1&
1'
#25
b11 #
b11 5
b11 D
b11 K
b11 /
b11 J
b10 -
b10 >
b10 A
b11 +
b11 <
b11 C
b11 3
b11 ?
b1001001000000011 1
b1001001000000011 :
b1001001000000011 ;
b1 .
b1 8
b1 9
1%
#30
0%
#35
b1000 L
b1000 #
b1000 5
b1000 D
b1000 K
b11 *
b11 F
b101 0
b101 E
b101 I
b11 /
b11 J
02
b0 6
b0 @
b0 H
b11 -
b11 >
b11 A
b1 ,
b1 =
b1 B
b10 +
b10 <
b10 C
b10 3
b10 ?
b1100010010 1
b1100010010 :
b1100010010 ;
b10 .
b10 8
b10 9
1%
#40
0%
#45
b10 L
b10 #
b10 5
b10 D
b10 K
b1 6
b1 @
b1 H
b100 -
b100 >
b100 A
b1010000010010 1
b1010000010010 :
b1010000010010 ;
b11 .
b11 8
b11 9
1%
#50
0%
#55
b100 /
b100 J
b1001 L
b1001 #
b1001 5
b1001 D
b1001 K
b10 *
b10 F
12
b0 6
b0 @
b0 H
b101 -
b101 >
b101 A
b100 +
b100 <
b100 C
b100 3
b100 ?
b10010100010100 1
b10010100010100 :
b10010100010100 ;
b100 .
b100 8
b100 9
1%
#60
0%
#65
0!
b1 #
b1 5
b1 D
b1 K
b11 *
b11 F
b11 /
b11 J
02
b11 6
b11 @
b11 H
b110 -
b110 >
b110 A
b10 +
b10 <
b10 C
b10 3
b10 ?
b11011000010010 1
b11011000010010 :
b11011000010010 ;
b101 .
b101 8
b101 9
1%
#70
0%
#75
b111 #
b111 5
b111 D
b111 K
b100 6
b100 @
b100 H
b111 -
b111 >
b111 A
b100011100010010 1
b100011100010010 :
b100011100010010 ;
b110 .
b110 8
b110 9
1%
#80
0%
#85
b110 #
b110 5
b110 D
b110 K
b101 6
b101 @
b101 H
b1000 -
b1000 >
b1000 A
b101100000010010 1
b101100000010010 :
b101100000010010 ;
b111 .
b111 8
b111 9
1%
#90
0%
#95
b0 /
b0 J
b11111010 #
b11111010 5
b11111010 D
b11111010 K
b0 *
b0 F
b110 6
b110 @
b110 H
b1001 -
b1001 >
b1001 A
b0 +
b0 <
b0 C
b0 3
b0 ?
b110100100010000 1
b110100100010000 :
b110100100010000 ;
b1000 .
b1000 8
b1000 9
1%
#100
0%
#105
b1 /
b1 J
0!
b1 #
b1 5
b1 D
b1 K
b101 *
b101 F
b0 0
b0 E
b0 I
12
b1001 6
b1001 @
b1001 H
b1010 -
b1010 >
b1010 A
b0 ,
b0 =
b0 B
b1 +
b1 <
b1 C
b1 3
b1 ?
b1001101000000001 1
b1001101000000001 :
b1001101000000001 ;
b1001 .
b1001 8
b1001 9
1%
#110
0%
#115
b100 #
b100 5
b100 D
b100 K
b11 *
b11 F
b1 0
b1 E
b1 I
b10 /
b10 J
b111 6
b111 @
b111 H
b1011 -
b1011 >
b1011 A
b1010 ,
b1010 =
b1010 B
b10 +
b10 <
b10 C
b10 3
b10 ?
b111101110100010 1
b111101110100010 :
b111101110100010 ;
b1010 .
b1010 8
b1010 9
1%
#120
0%
#125
b10 #
b10 5
b10 D
b10 K
b101 *
b101 F
b100 0
b100 E
b100 I
b1 /
b1 J
b1000 6
b1000 @
b1000 H
b1100 -
b1100 >
b1100 A
b1011 ,
b1011 =
b1011 B
b1 +
b1 <
b1 C
b1 3
b1 ?
b1000110010110001 1
b1000110010110001 :
b1000110010110001 ;
b1011 .
b1011 8
b1011 9
1%
#130
0%
#135
b10 L
b10 #
b10 5
b10 D
b10 K
b11 *
b11 F
b101 0
b101 E
b101 I
b11 /
b11 J
02
0)
b1 6
b1 @
b1 H
b0 -
b0 >
b0 A
b1 ,
b1 =
b1 B
b10 +
b10 <
b10 C
b10 3
b10 ?
b1011000000010010 1
b1011000000010010 :
b1011000000010010 ;
b1100 .
b1100 8
b1100 9
1%
#140
0%
#145
b1x /
b1x J
14
1!
b0 #
b0 5
b0 D
b0 K
b0 0
b0 E
b0 I
x2
bx 6
bx @
bx H
b0 ,
b0 =
b0 B
b1101000000000010 1
b1101000000000010 :
b1101000000000010 ;
b1101 .
b1101 8
b1101 9
1%
#150
0%
#155
0!
b101 #
b101 5
b101 D
b101 K
b1001 *
b1001 F
b101 /
b101 J
04
12
1)
b1001 6
b1001 @
b1001 H
b1 -
b1 >
b1 A
b101 +
b101 <
b101 C
b101 3
b101 ?
b1001000100000101 1
b1001000100000101 :
b1001000100000101 ;
b0 .
b0 8
b0 9
1%
#160
0%
#165
b11 #
b11 5
b11 D
b11 K
b1000 *
b1000 F
b11 /
b11 J
b10 -
b10 >
b10 A
b11 +
b11 <
b11 C
b11 3
b11 ?
b1001001000000011 1
b1001001000000011 :
b1001001000000011 ;
b1 .
b1 8
b1 9
1%
#170
0%
#175
b1000 L
b1000 #
b1000 5
b1000 D
b1000 K
b11 *
b11 F
b101 0
b101 E
b101 I
b11 /
b11 J
02
b0 6
b0 @
b0 H
b11 -
b11 >
b11 A
b1 ,
b1 =
b1 B
b10 +
b10 <
b10 C
b10 3
b10 ?
b1100010010 1
b1100010010 :
b1100010010 ;
b10 .
b10 8
b10 9
1%
#180
0%
#185
b10 L
b10 #
b10 5
b10 D
b10 K
b1 6
b1 @
b1 H
b100 -
b100 >
b100 A
b1010000010010 1
b1010000010010 :
b1010000010010 ;
b11 .
b11 8
b11 9
1%
#190
0%
#195
b100 /
b100 J
b1001 L
b1001 #
b1001 5
b1001 D
b1001 K
b10 *
b10 F
12
b0 6
b0 @
b0 H
b101 -
b101 >
b101 A
b100 +
b100 <
b100 C
b100 3
b100 ?
b10010100010100 1
b10010100010100 :
b10010100010100 ;
b100 .
b100 8
b100 9
1%
#200
0%
#205
0!
b1 #
b1 5
b1 D
b1 K
b11 *
b11 F
b11 /
b11 J
02
b11 6
b11 @
b11 H
b110 -
b110 >
b110 A
b10 +
b10 <
b10 C
b10 3
b10 ?
b11011000010010 1
b11011000010010 :
b11011000010010 ;
b101 .
b101 8
b101 9
1%
#210
0%
#215
b111 #
b111 5
b111 D
b111 K
b100 6
b100 @
b100 H
b111 -
b111 >
b111 A
b100011100010010 1
b100011100010010 :
b100011100010010 ;
b110 .
b110 8
b110 9
1%
#220
0%
#225
b110 #
b110 5
b110 D
b110 K
b101 6
b101 @
b101 H
b1000 -
b1000 >
b1000 A
b101100000010010 1
b101100000010010 :
b101100000010010 ;
b111 .
b111 8
b111 9
1%
#230
0%
#235
b0 /
b0 J
b11111010 #
b11111010 5
b11111010 D
b11111010 K
b0 *
b0 F
b110 6
b110 @
b110 H
b1001 -
b1001 >
b1001 A
b0 +
b0 <
b0 C
b0 3
b0 ?
b110100100010000 1
b110100100010000 :
b110100100010000 ;
b1000 .
b1000 8
b1000 9
1%
#240
0%
#245
b1 /
b1 J
0!
b1 #
b1 5
b1 D
b1 K
b101 *
b101 F
b0 0
b0 E
b0 I
12
b1001 6
b1001 @
b1001 H
b1010 -
b1010 >
b1010 A
b0 ,
b0 =
b0 B
b1 +
b1 <
b1 C
b1 3
b1 ?
b1001101000000001 1
b1001101000000001 :
b1001101000000001 ;
b1001 .
b1001 8
b1001 9
1%
#250
0%
#255
b100 #
b100 5
b100 D
b100 K
b11 *
b11 F
b1 0
b1 E
b1 I
b10 /
b10 J
b111 6
b111 @
b111 H
b1011 -
b1011 >
b1011 A
b1010 ,
b1010 =
b1010 B
b10 +
b10 <
b10 C
b10 3
b10 ?
b111101110100010 1
b111101110100010 :
b111101110100010 ;
b1010 .
b1010 8
b1010 9
1%
#260
0%
#265
b10 #
b10 5
b10 D
b10 K
b101 *
b101 F
b100 0
b100 E
b100 I
b1 /
b1 J
b1000 6
b1000 @
b1000 H
b1100 -
b1100 >
b1100 A
b1011 ,
b1011 =
b1011 B
b1 +
b1 <
b1 C
b1 3
b1 ?
b1000110010110001 1
b1000110010110001 :
b1000110010110001 ;
b1011 .
b1011 8
b1011 9
1%
#270
0%
#275
b10 L
b10 #
b10 5
b10 D
b10 K
b11 *
b11 F
b101 0
b101 E
b101 I
b11 /
b11 J
02
0)
b1 6
b1 @
b1 H
b0 -
b0 >
b0 A
b1 ,
b1 =
b1 B
b10 +
b10 <
b10 C
b10 3
b10 ?
b1011000000010010 1
b1011000000010010 :
b1011000000010010 ;
b1100 .
b1100 8
b1100 9
1%
#280
0%
#285
b1x /
b1x J
14
1!
b0 #
b0 5
b0 D
b0 K
b0 0
b0 E
b0 I
x2
bx 6
bx @
bx H
b0 ,
b0 =
b0 B
b1101000000000010 1
b1101000000000010 :
b1101000000000010 ;
b1101 .
b1101 8
b1101 9
1%
#290
0%
#295
0!
b101 #
b101 5
b101 D
b101 K
b1001 *
b1001 F
b101 /
b101 J
04
12
1)
b1001 6
b1001 @
b1001 H
b1 -
b1 >
b1 A
b101 +
b101 <
b101 C
b101 3
b101 ?
b1001000100000101 1
b1001000100000101 :
b1001000100000101 ;
b0 .
b0 8
b0 9
1%
#300
0%
#305
b11 #
b11 5
b11 D
b11 K
b1000 *
b1000 F
b11 /
b11 J
b10 -
b10 >
b10 A
b11 +
b11 <
b11 C
b11 3
b11 ?
b1001001000000011 1
b1001001000000011 :
b1001001000000011 ;
b1 .
b1 8
b1 9
1%
#310
0%
#315
b1000 L
b1000 #
b1000 5
b1000 D
b1000 K
b11 *
b11 F
b101 0
b101 E
b101 I
b11 /
b11 J
02
b0 6
b0 @
b0 H
b11 -
b11 >
b11 A
b1 ,
b1 =
b1 B
b10 +
b10 <
b10 C
b10 3
b10 ?
b1100010010 1
b1100010010 :
b1100010010 ;
b10 .
b10 8
b10 9
1%
#320
0%
#325
b10 L
b10 #
b10 5
b10 D
b10 K
b1 6
b1 @
b1 H
b100 -
b100 >
b100 A
b1010000010010 1
b1010000010010 :
b1010000010010 ;
b11 .
b11 8
b11 9
1%
#330
0%
#335
b100 /
b100 J
b1001 L
b1001 #
b1001 5
b1001 D
b1001 K
b10 *
b10 F
12
b0 6
b0 @
b0 H
b101 -
b101 >
b101 A
b100 +
b100 <
b100 C
b100 3
b100 ?
b10010100010100 1
b10010100010100 :
b10010100010100 ;
b100 .
b100 8
b100 9
1%
#340
0%
#345
0!
b1 #
b1 5
b1 D
b1 K
b11 *
b11 F
b11 /
b11 J
02
b11 6
b11 @
b11 H
b110 -
b110 >
b110 A
b10 +
b10 <
b10 C
b10 3
b10 ?
b11011000010010 1
b11011000010010 :
b11011000010010 ;
b101 .
b101 8
b101 9
1%
#350
0%
#355
b111 #
b111 5
b111 D
b111 K
b100 6
b100 @
b100 H
b111 -
b111 >
b111 A
b100011100010010 1
b100011100010010 :
b100011100010010 ;
b110 .
b110 8
b110 9
1%
#360
0%
#365
b110 #
b110 5
b110 D
b110 K
b101 6
b101 @
b101 H
b1000 -
b1000 >
b1000 A
b101100000010010 1
b101100000010010 :
b101100000010010 ;
b111 .
b111 8
b111 9
1%
#370
0%
#375
b0 /
b0 J
b11111010 #
b11111010 5
b11111010 D
b11111010 K
b0 *
b0 F
b110 6
b110 @
b110 H
b1001 -
b1001 >
b1001 A
b0 +
b0 <
b0 C
b0 3
b0 ?
b110100100010000 1
b110100100010000 :
b110100100010000 ;
b1000 .
b1000 8
b1000 9
1%
#380
0%
#385
b1 /
b1 J
0!
b1 #
b1 5
b1 D
b1 K
b101 *
b101 F
b0 0
b0 E
b0 I
12
b1001 6
b1001 @
b1001 H
b1010 -
b1010 >
b1010 A
b0 ,
b0 =
b0 B
b1 +
b1 <
b1 C
b1 3
b1 ?
b1001101000000001 1
b1001101000000001 :
b1001101000000001 ;
b1001 .
b1001 8
b1001 9
1%
#390
0%
#395
b100 #
b100 5
b100 D
b100 K
b11 *
b11 F
b1 0
b1 E
b1 I
b10 /
b10 J
b111 6
b111 @
b111 H
b1011 -
b1011 >
b1011 A
b1010 ,
b1010 =
b1010 B
b10 +
b10 <
b10 C
b10 3
b10 ?
b111101110100010 1
b111101110100010 :
b111101110100010 ;
b1010 .
b1010 8
b1010 9
1%
#400
0%
#405
b10 #
b10 5
b10 D
b10 K
b101 *
b101 F
b100 0
b100 E
b100 I
b1 /
b1 J
b1000 6
b1000 @
b1000 H
b1100 -
b1100 >
b1100 A
b1011 ,
b1011 =
b1011 B
b1 +
b1 <
b1 C
b1 3
b1 ?
b1000110010110001 1
b1000110010110001 :
b1000110010110001 ;
b1011 .
b1011 8
b1011 9
1%
#410
0%
#415
b10 L
b10 #
b10 5
b10 D
b10 K
b11 *
b11 F
b101 0
b101 E
b101 I
b11 /
b11 J
02
0)
b1 6
b1 @
b1 H
b0 -
b0 >
b0 A
b1 ,
b1 =
b1 B
b10 +
b10 <
b10 C
b10 3
b10 ?
b1011000000010010 1
b1011000000010010 :
b1011000000010010 ;
b1100 .
b1100 8
b1100 9
1%
#420
0%
#425
b1x /
b1x J
14
1!
b0 #
b0 5
b0 D
b0 K
b0 0
b0 E
b0 I
x2
bx 6
bx @
bx H
b0 ,
b0 =
b0 B
b1101000000000010 1
b1101000000000010 :
b1101000000000010 ;
b1101 .
b1101 8
b1101 9
1%
#430
0%
#435
0!
b101 #
b101 5
b101 D
b101 K
b1001 *
b1001 F
b101 /
b101 J
04
12
1)
b1001 6
b1001 @
b1001 H
b1 -
b1 >
b1 A
b101 +
b101 <
b101 C
b101 3
b101 ?
b1001000100000101 1
b1001000100000101 :
b1001000100000101 ;
b0 .
b0 8
b0 9
1%
#440
0%
#445
b11 #
b11 5
b11 D
b11 K
b1000 *
b1000 F
b11 /
b11 J
b10 -
b10 >
b10 A
b11 +
b11 <
b11 C
b11 3
b11 ?
b1001001000000011 1
b1001001000000011 :
b1001001000000011 ;
b1 .
b1 8
b1 9
1%
#450
0%
#455
b1000 L
b1000 #
b1000 5
b1000 D
b1000 K
b11 *
b11 F
b101 0
b101 E
b101 I
b11 /
b11 J
02
b0 6
b0 @
b0 H
b11 -
b11 >
b11 A
b1 ,
b1 =
b1 B
b10 +
b10 <
b10 C
b10 3
b10 ?
b1100010010 1
b1100010010 :
b1100010010 ;
b10 .
b10 8
b10 9
1%
#460
0%
#465
b10 L
b10 #
b10 5
b10 D
b10 K
b1 6
b1 @
b1 H
b100 -
b100 >
b100 A
b1010000010010 1
b1010000010010 :
b1010000010010 ;
b11 .
b11 8
b11 9
1%
#470
0%
#475
b100 /
b100 J
b1001 L
b1001 #
b1001 5
b1001 D
b1001 K
b10 *
b10 F
12
b0 6
b0 @
b0 H
b101 -
b101 >
b101 A
b100 +
b100 <
b100 C
b100 3
b100 ?
b10010100010100 1
b10010100010100 :
b10010100010100 ;
b100 .
b100 8
b100 9
1%
#480
0%
#485
0!
b1 #
b1 5
b1 D
b1 K
b11 *
b11 F
b11 /
b11 J
02
b11 6
b11 @
b11 H
b110 -
b110 >
b110 A
b10 +
b10 <
b10 C
b10 3
b10 ?
b11011000010010 1
b11011000010010 :
b11011000010010 ;
b101 .
b101 8
b101 9
1%
#490
0%
#495
b111 #
b111 5
b111 D
b111 K
b100 6
b100 @
b100 H
b111 -
b111 >
b111 A
b100011100010010 1
b100011100010010 :
b100011100010010 ;
b110 .
b110 8
b110 9
1%
#500
0%
#505
b110 #
b110 5
b110 D
b110 K
b101 6
b101 @
b101 H
b1000 -
b1000 >
b1000 A
b101100000010010 1
b101100000010010 :
b101100000010010 ;
b111 .
b111 8
b111 9
1%
#510
0%
#515
b0 /
b0 J
b11111010 #
b11111010 5
b11111010 D
b11111010 K
b0 *
b0 F
b110 6
b110 @
b110 H
b1001 -
b1001 >
b1001 A
b0 +
b0 <
b0 C
b0 3
b0 ?
b110100100010000 1
b110100100010000 :
b110100100010000 ;
b1000 .
b1000 8
b1000 9
1%
