sim/tb_instruction_decoder.vcd
$date
	Sat Jun 20 09:33:02 2026
$end
$version
	Icarus Verilog
$end
$timescale
	1s
$end
$scope module tb_instruction_decoder $end
$var wire 4 ! tb_rs2_addr [3:0] $end
$var wire 4 " tb_rs1_addr [3:0] $end
$var wire 1 # tb_reg_wr_en $end
$var wire 4 $ tb_rd_addr [3:0] $end
$var wire 4 % tb_opcode [3:0] $end
$var wire 1 & tb_imm_sel $end
$var wire 8 ' tb_imm [7:0] $end
$var wire 1 ( tb_branch_en $end
$var wire 4 ) tb_alu_op [3:0] $end
$var reg 16 * tb_instr [15:0] $end
$var reg 1 + tb_zero_flag $end
$scope module dut $end
$var wire 16 , instr [15:0] $end
$var wire 1 + zero_flag $end
$var wire 4 - rs2_addr [3:0] $end
$var wire 4 . rs1_addr [3:0] $end
$var wire 4 / rd_addr [3:0] $end
$var wire 4 0 opcode [3:0] $end
$var wire 8 1 imm [7:0] $end
$var reg 4 2 alu_op [3:0] $end
$var reg 1 ( branch_en $end
$var reg 1 & imm_sel $end
$var reg 1 # reg_wr_en $end
$upscope $end
$upscope $end
$enddefinitions $end
#0
$dumpvars
b0 2
b11 1
b0 0
b1 /
b10 .
b11 -
b100100011 ,
0+
b100100011 *
b0 )
0(
b11 '
0&
b0 %
b1 $
1#
b10 "
b11 !
$end
#10
b1 )
b1 2
b1 %
b1 0
b100 $
b100 /
b101 "
b101 .
b110 !
b110 -
b110 '
b110 1
b1010001010110 *
b1010001010110 ,
#20
1&
b0 )
b0 2
b10 %
b10 0
b111 $
b111 /
b1000 "
b1000 .
b1010 !
b1010 -
b11111010 '
b11111010 1
b10011110001010 *
b10011110001010 ,
#30
0&
b11 )
b11 2
b11 %
b11 0
b1011 $
b1011 /
b1100 "
b1100 .
b10 !
b10 -
b10 '
b10 1
b11101111000010 *
b11101111000010 ,
#40
b100 )
b100 2
b100 %
b100 0
b10 $
b10 /
b11 "
b11 .
b100 !
b100 -
b100 '
b100 1
b100001000110100 *
b100001000110100 ,
#50
b101 )
b101 2
b101 %
b101 0
b101 $
b101 /
b110 "
b110 .
b111 !
b111 -
b111 '
b111 1
b101010101100111 *
b101010101100111 ,
#60
b110 )
b110 2
b110 %
b110 0
b1000 $
b1000 /
b1001 "
b1001 .
b1010 !
b1010 -
b11111010 '
b11111010 1
b110100010011010 *
b110100010011010 ,
#70
1&
b111 )
b111 2
b111 %
b111 0
b1100 $
b1100 /
b1101 "
b1101 .
b1110 !
b1110 -
b11111110 '
b11111110 1
b111110011011110 *
b111110011011110 ,
#80
b1000 )
b1000 2
b1000 %
b1000 0
b1 $
b1 /
b10 "
b10 .
b11 !
b11 -
b11 '
b11 1
b1000000100100011 *
b1000000100100011 ,
#90
b1001 )
b1001 2
b1001 %
b1001 0
b100 $
b100 /
b101 "
b101 .
b1111 !
b1111 -
b11111111 '
b11111111 1
b1001010001011111 *
b1001010001011111 ,
#100
0&
b1010 )
b1010 2
b1010 %
b1010 0
b111 $
b111 /
b1000 "
b1000 .
b1001 !
b1001 -
b11111001 '
b11111001 1
b1010011110001001 *
b1010011110001001 ,
#110
0#
b1 )
b1 2
b1011 %
b1011 0
b1010 $
b1010 /
b1011 "
b1011 .
b1100 !
b1100 -
b11111100 '
b11111100 1
b1011101010111100 *
b1011101010111100 ,
#120
1(
x&
bx )
bx 2
b1100 %
b1100 0
b1101 $
b1101 /
b1110 "
b1110 .
b101 !
b101 -
b101 '
b101 1
b1100110111100101 *
b1100110111100101 ,
#130
b1101 %
b1101 0
b1 $
b1 /
b10 "
b10 .
b11 !
b11 -
b11 '
b11 1
1+
b1101000100100011 *
b1101000100100011 ,
#140
0(
0+
#150
b1110 %
b1110 0
b100 $
b100 /
b101 "
b101 .
b110 !
b110 -
b110 '
b110 1
1+
b1110010001010110 *
b1110010001010110 ,
#160
1(
0+
#170
0(
b1111 %
b1111 0
b0 $
b0 /
b0 "
b0 .
b0 !
b0 -
b0 '
b0 1
b1111000000000000 *
b1111000000000000 ,
